SKU,Product.ID,Reference.Name,Type,Cleared.For.Sale,Wholesale.Price.Tier,Displayed.Name,Description,Screenshot.Path,Effective.Date,End.Date,Review.Notes,Hosted.Content.Path
metamusic02,Non-Consumable,bach_air_orchestral_suite_3,bach_air_orchestral_suite_3,YES,10,"Air from Orchestral Suite #3, BWV 1068 (Air on a G String)","Air from Orchestral Suite #3, BWV 1068 (Air on a G String)",/Users/yushenhan/Dropbox/MMExecutives/IAPs/IAP_screenshot_2560×1600.png,Now,None,a single downloadable movement of a piece for in-app purchase,NA
metamusic02,Non-Consumable,bach_violin_concerto_1_mvmt1,bach_violin_concerto_1_mvmt1,YES,10,"Violin Concerto #1 in A Minor, BWV 1041, Mvmt 1","Violin Concerto #1 in A Minor, BWV 1041, Mvmt 1",/Users/yushenhan/Dropbox/MMExecutives/IAPs/IAP_screenshot_2560×1600.png,Now,None,a single downloadable movement of a piece for in-app purchase,NA
metamusic02,Non-Consumable,bach_violin_concerto_1_mvmt2,bach_violin_concerto_1_mvmt2,YES,10,"Violin Concerto #1 in A Minor, BWV 1041, Mvmt 2","Violin Concerto #1 in A Minor, BWV 1041, Mvmt 2",/Users/yushenhan/Dropbox/MMExecutives/IAPs/IAP_screenshot_2560×1600.png,Now,None,a single downloadable movement of a piece for in-app purchase,NA
metamusic02,Non-Consumable,bach_violin_concerto_1_mvmt3,bach_violin_concerto_1_mvmt3,YES,10,"Violin Concerto #1 in A Minor, BWV 1041, Mvmt 3","Violin Concerto #1 in A Minor, BWV 1041, Mvmt 3",/Users/yushenhan/Dropbox/MMExecutives/IAPs/IAP_screenshot_2560×1600.png,Now,None,a single downloadable movement of a piece for in-app purchase,NA
metamusic02,Non-Consumable,bach_violin_concerto_2_mvmt1,bach_violin_concerto_2_mvmt1,YES,10,"Violin Concerto #2 in E Major, BWV 1042, Mvmt 1","Violin Concerto #2 in E Major, BWV 1042, Mvmt 1",/Users/yushenhan/Dropbox/MMExecutives/IAPs/IAP_screenshot_2560×1600.png,Now,None,a single downloadable movement of a piece for in-app purchase,NA
metamusic02,Non-Consumable,bach_violin_concerto_2_mvmt2,bach_violin_concerto_2_mvmt2,YES,10,"Violin Concerto #2 in E Major, BWV 1042, Mvmt 2","Violin Concerto #2 in E Major, BWV 1042, Mvmt 2",/Users/yushenhan/Dropbox/MMExecutives/IAPs/IAP_screenshot_2560×1600.png,Now,None,a single downloadable movement of a piece for in-app purchase,NA
metamusic02,Non-Consumable,bach_violin_concerto_2_mvmt3,bach_violin_concerto_2_mvmt3,YES,10,"Violin Concerto #2 in E Major, BWV 1042, Mvmt 3","Violin Concerto #2 in E Major, BWV 1042, Mvmt 3",/Users/yushenhan/Dropbox/MMExecutives/IAPs/IAP_screenshot_2560×1600.png,Now,None,a single downloadable movement of a piece for in-app purchase,NA
metamusic02,Non-Consumable,bach_double_concerto_first_mvmt1,bach_double_concerto_first_mvmt1,YES,10,"Concerto for 2 Violins in D minor, BWV 1043, Mvmt 1 (for First Violin)","Concerto for 2 Violins in D minor, BWV 1043, Mvmt 1 (for First Violin)",/Users/yushenhan/Dropbox/MMExecutives/IAPs/IAP_screenshot_2560×1600.png,Now,None,a single downloadable movement of a piece for in-app purchase,NA
metamusic02,Non-Consumable,bach_double_concerto_first_mvmt2,bach_double_concerto_first_mvmt2,YES,10,"Concerto for 2 Violins in D minor, BWV 1043, Mvmt 2 (for First Violin)","Concerto for 2 Violins in D minor, BWV 1043, Mvmt 2 (for First Violin)",/Users/yushenhan/Dropbox/MMExecutives/IAPs/IAP_screenshot_2560×1600.png,Now,None,a single downloadable movement of a piece for in-app purchase,NA
metamusic02,Non-Consumable,bach_double_concerto_first_mvmt3,bach_double_concerto_first_mvmt3,YES,10,"Concerto for 2 Violins in D minor, BWV 1043, Mvmt 3 (for First Violin)","Concerto for 2 Violins in D minor, BWV 1043, Mvmt 3 (for First Violin)",/Users/yushenhan/Dropbox/MMExecutives/IAPs/IAP_screenshot_2560×1600.png,Now,None,a single downloadable movement of a piece for in-app purchase,NA
metamusic02,Non-Consumable,beethoven_violin_concerto_mvmt1,beethoven_violin_concerto_mvmt1,YES,10,"Violin Concerto, op. 61, Mvmt 1","Violin Concerto, op. 61, Mvmt 1",/Users/yushenhan/Dropbox/MMExecutives/IAPs/IAP_screenshot_2560×1600.png,Now,None,a single downloadable movement of a piece for in-app purchase,NA
metamusic02,Non-Consumable,beethoven_violin_concerto_mvmt2,beethoven_violin_concerto_mvmt2,YES,10,"Violin Concerto, op. 61, Mvmt 2","Violin Concerto, op. 61, Mvmt 2",/Users/yushenhan/Dropbox/MMExecutives/IAPs/IAP_screenshot_2560×1600.png,Now,None,a single downloadable movement of a piece for in-app purchase,NA
metamusic02,Non-Consumable,beethoven_violin_concerto_mvmt3,beethoven_violin_concerto_mvmt3,YES,10,"Violin Concerto, op. 61, Mvmt 3","Violin Concerto, op. 61, Mvmt 3",/Users/yushenhan/Dropbox/MMExecutives/IAPs/IAP_screenshot_2560×1600.png,Now,None,a single downloadable movement of a piece for in-app purchase,NA
metamusic02,Non-Consumable,beethoven_violin_romance_1,beethoven_violin_romance_1,YES,10,"Romance #1 for Violin and Orchestra, op. 40","Romance #1 for Violin and Orchestra, op. 40",/Users/yushenhan/Dropbox/MMExecutives/IAPs/IAP_screenshot_2560×1600.png,Now,None,a single downloadable movement of a piece for in-app purchase,NA
metamusic02,Non-Consumable,beethoven_violin_romance_2,beethoven_violin_romance_2,YES,10,"Romance #2 for Violin and Orchestra, op. 50","Romance #2 for Violin and Orchestra, op. 50",/Users/yushenhan/Dropbox/MMExecutives/IAPs/IAP_screenshot_2560×1600.png,Now,None,a single downloadable movement of a piece for in-app purchase,NA
metamusic02,Non-Consumable,brahms_violin_concerto_mvmt1,brahms_violin_concerto_mvmt1,YES,10,"Violin Concerto, op. 77, Mvmt 1","Violin Concerto, op. 77, Mvmt 1",/Users/yushenhan/Dropbox/MMExecutives/IAPs/IAP_screenshot_2560×1600.png,Now,None,a single downloadable movement of a piece for in-app purchase,NA
metamusic02,Non-Consumable,brahms_violin_concerto_mvmt2,brahms_violin_concerto_mvmt2,YES,10,"Violin Concerto, op. 77, Mvmt 2","Violin Concerto, op. 77, Mvmt 2",/Users/yushenhan/Dropbox/MMExecutives/IAPs/IAP_screenshot_2560×1600.png,Now,None,a single downloadable movement of a piece for in-app purchase,NA
metamusic02,Non-Consumable,brahms_violin_concerto_mvmt3,brahms_violin_concerto_mvmt3,YES,10,"Violin Concerto, op. 77, Mvmt 3","Violin Concerto, op. 77, Mvmt 3",/Users/yushenhan/Dropbox/MMExecutives/IAPs/IAP_screenshot_2560×1600.png,Now,None,a single downloadable movement of a piece for in-app purchase,NA
metamusic02,Non-Consumable,bruch_violin_concerto_1_mvmts12,bruch_violin_concerto_1_mvmts12,YES,10,"Violin Concerto #1, op. 26, Mvmts 1-2","Violin Concerto #1, op. 26, Mvmts 1-2",/Users/yushenhan/Dropbox/MMExecutives/IAPs/IAP_screenshot_2560×1600.png,Now,None,a single downloadable movement of a piece for in-app purchase,NA
metamusic02,Non-Consumable,bruch_violin_concerto_1_mvmt3,bruch_violin_concerto_1_mvmt3,YES,10,"Violin Concerto #1, op. 26, Mvmt 3","Violin Concerto #1, op. 26, Mvmt 3",/Users/yushenhan/Dropbox/MMExecutives/IAPs/IAP_screenshot_2560×1600.png,Now,None,a single downloadable movement of a piece for in-app purchase,NA
metamusic02,Non-Consumable,chausson_poeme,chausson_poeme,YES,10,"Poeme, op. 25","Poeme, op. 25",/Users/yushenhan/Dropbox/MMExecutives/IAPs/IAP_screenshot_2560×1600.png,Now,None,a single downloadable movement of a piece for in-app purchase,NA
metamusic02,Non-Consumable,dvorak_humoresque,dvorak_humoresque,YES,10,"Humoresque #7, op. 101","Humoresque #7, op. 101",/Users/yushenhan/Dropbox/MMExecutives/IAPs/IAP_screenshot_2560×1600.png,Now,None,a single downloadable movement of a piece for in-app purchase,NA
metamusic02,Non-Consumable,lalo_symphonie_espagnole_mvmt1,lalo_symphonie_espagnole_mvmt1,YES,10,"Symphonie Espagnole, op. 21, Mvmt 1","Symphonie Espagnole, op. 21, Mvmt 1",/Users/yushenhan/Dropbox/MMExecutives/IAPs/IAP_screenshot_2560×1600.png,Now,None,a single downloadable movement of a piece for in-app purchase,NA
metamusic02,Non-Consumable,lalo_symphonie_espagnole_mvmt2,lalo_symphonie_espagnole_mvmt2,YES,10,"Symphonie Espagnole, op. 21, Mvmt 2","Symphonie Espagnole, op. 21, Mvmt 2",/Users/yushenhan/Dropbox/MMExecutives/IAPs/IAP_screenshot_2560×1600.png,Now,None,a single downloadable movement of a piece for in-app purchase,NA
metamusic02,Non-Consumable,lalo_symphonie_espagnole_mvmt3,lalo_symphonie_espagnole_mvmt3,YES,10,"Symphonie Espagnole, op. 21, Mvmt 3","Symphonie Espagnole, op. 21, Mvmt 3",/Users/yushenhan/Dropbox/MMExecutives/IAPs/IAP_screenshot_2560×1600.png,Now,None,a single downloadable movement of a piece for in-app purchase,NA
metamusic02,Non-Consumable,lalo_symphonie_espagnole_mvmt4,lalo_symphonie_espagnole_mvmt4,YES,10,"Symphonie Espagnole, op. 21, Mvmt 4","Symphonie Espagnole, op. 21, Mvmt 4",/Users/yushenhan/Dropbox/MMExecutives/IAPs/IAP_screenshot_2560×1600.png,Now,None,a single downloadable movement of a piece for in-app purchase,NA
metamusic02,Non-Consumable,lalo_symphonie_espagnole_mvmt5,lalo_symphonie_espagnole_mvmt5,YES,10,"Symphonie Espagnole, op. 21, Mvmt 5","Symphonie Espagnole, op. 21, Mvmt 5",/Users/yushenhan/Dropbox/MMExecutives/IAPs/IAP_screenshot_2560×1600.png,Now,None,a single downloadable movement of a piece for in-app purchase,NA
metamusic02,Non-Consumable,massenet_thais_meditation,massenet_thais_meditation,YES,10,Meditation from Thaïs,Meditation from Thaïs,/Users/yushenhan/Dropbox/MMExecutives/IAPs/IAP_screenshot_2560×1600.png,Now,None,a single downloadable movement of a piece for in-app purchase,NA
metamusic02,Non-Consumable,mendelssohn_violin_concerto_mvmts12,mendelssohn_violin_concerto_mvmts12,YES,10,"Violin Concerto, op. 64, Mvmts 1-2","Violin Concerto, op. 64, Mvmts 1-2",/Users/yushenhan/Dropbox/MMExecutives/IAPs/IAP_screenshot_2560×1600.png,Now,None,a single downloadable movement of a piece for in-app purchase,NA
metamusic02,Non-Consumable,mendelssohn_violin_concerto_mvmt3,mendelssohn_violin_concerto_mvmt3,YES,10,"Violin Concerto, op. 64, Mvmt 3","Violin Concerto, op. 64, Mvmt 3",/Users/yushenhan/Dropbox/MMExecutives/IAPs/IAP_screenshot_2560×1600.png,Now,None,a single downloadable movement of a piece for in-app purchase,NA
metamusic02,Non-Consumable,mozart_violin_concerto_3_mvmt1,mozart_violin_concerto_3_mvmt1,YES,10,"Violin Concerto #3 K. 216, Mvmt 1","Violin Concerto #3 K. 216, Mvmt 1",/Users/yushenhan/Dropbox/MMExecutives/IAPs/IAP_screenshot_2560×1600.png,Now,None,a single downloadable movement of a piece for in-app purchase,NA
metamusic02,Non-Consumable,mozart_violin_concerto_3_mvmt2,mozart_violin_concerto_3_mvmt2,YES,10,"Violin Concerto #3 K. 216, Mvmt 2","Violin Concerto #3 K. 216, Mvmt 2",/Users/yushenhan/Dropbox/MMExecutives/IAPs/IAP_screenshot_2560×1600.png,Now,None,a single downloadable movement of a piece for in-app purchase,NA
metamusic02,Non-Consumable,mozart_violin_concerto_3_mvmt3,mozart_violin_concerto_3_mvmt3,YES,10,"Violin Concerto #3 K. 216, Mvmt 3","Violin Concerto #3 K. 216, Mvmt 3",/Users/yushenhan/Dropbox/MMExecutives/IAPs/IAP_screenshot_2560×1600.png,Now,None,a single downloadable movement of a piece for in-app purchase,NA
metamusic02,Non-Consumable,mozart_violin_concerto_4_mvmt1,mozart_violin_concerto_4_mvmt1,YES,10,"Violin Concerto #4 K. 218, Mvmt 1","Violin Concerto #4 K. 218, Mvmt 1",/Users/yushenhan/Dropbox/MMExecutives/IAPs/IAP_screenshot_2560×1600.png,Now,None,a single downloadable movement of a piece for in-app purchase,NA
metamusic02,Non-Consumable,mozart_violin_concerto_4_mvmt2,mozart_violin_concerto_4_mvmt2,YES,10,"Violin Concerto #4 K. 218, Mvmt 2","Violin Concerto #4 K. 218, Mvmt 2",/Users/yushenhan/Dropbox/MMExecutives/IAPs/IAP_screenshot_2560×1600.png,Now,None,a single downloadable movement of a piece for in-app purchase,NA
metamusic02,Non-Consumable,mozart_violin_concerto_4_mvmt3,mozart_violin_concerto_4_mvmt3,YES,10,"Violin Concerto #4 K. 218, Mvmt 3","Violin Concerto #4 K. 218, Mvmt 3",/Users/yushenhan/Dropbox/MMExecutives/IAPs/IAP_screenshot_2560×1600.png,Now,None,a single downloadable movement of a piece for in-app purchase,NA
metamusic02,Non-Consumable,mozart_violin_concerto_5_mvmt1,mozart_violin_concerto_5_mvmt1,YES,10,"Violin Concerto #5 K. 219, Mvmt 1","Violin Concerto #5 K. 219, Mvmt 1",/Users/yushenhan/Dropbox/MMExecutives/IAPs/IAP_screenshot_2560×1600.png,Now,None,a single downloadable movement of a piece for in-app purchase,NA
metamusic02,Non-Consumable,mozart_violin_concerto_5_mvmt2,mozart_violin_concerto_5_mvmt2,YES,10,"Violin Concerto #5 K. 219, Mvmt 2","Violin Concerto #5 K. 219, Mvmt 2",/Users/yushenhan/Dropbox/MMExecutives/IAPs/IAP_screenshot_2560×1600.png,Now,None,a single downloadable movement of a piece for in-app purchase,NA
metamusic02,Non-Consumable,mozart_violin_concerto_5_mvmt3,mozart_violin_concerto_5_mvmt3,YES,10,"Violin Concerto #5 K. 219, Mvmt 3","Violin Concerto #5 K. 219, Mvmt 3",/Users/yushenhan/Dropbox/MMExecutives/IAPs/IAP_screenshot_2560×1600.png,Now,None,a single downloadable movement of a piece for in-app purchase,NA
metamusic02,Non-Consumable,saint_saens_intro_rondo_capriccioso,saint_saens_intro_rondo_capriccioso,YES,10,"Introduction and Rondo Capriccioso, op. 28","Introduction and Rondo Capriccioso, op. 28",/Users/yushenhan/Dropbox/MMExecutives/IAPs/IAP_screenshot_2560×1600.png,Now,None,a single downloadable movement of a piece for in-app purchase,NA
metamusic02,Non-Consumable,sibelius_violin_concerto_mvmt2,sibelius_violin_concerto_mvmt2,YES,10,"Violin Concerto, Op.47, Mvmt 2","Violin Concerto, Op.47, Mvmt 2",/Users/yushenhan/Dropbox/MMExecutives/IAPs/IAP_screenshot_2560×1600.png,Now,None,a single downloadable movement of a piece for in-app purchase,NA
metamusic02,Non-Consumable,sibelius_violin_concerto_mvmt3,sibelius_violin_concerto_mvmt3,YES,10,"Violin Concerto, Op.47, Mvmt 3","Violin Concerto, Op.47, Mvmt 3",/Users/yushenhan/Dropbox/MMExecutives/IAPs/IAP_screenshot_2560×1600.png,Now,None,a single downloadable movement of a piece for in-app purchase,NA
metamusic02,Non-Consumable,tchaikovsky_violin_concerto_mvmt1,tchaikovsky_violin_concerto_mvmt1,YES,10,"Violin Concerto, op. 35, Mvmt 1","Violin Concerto, op. 35, Mvmt 1",/Users/yushenhan/Dropbox/MMExecutives/IAPs/IAP_screenshot_2560×1600.png,Now,None,a single downloadable movement of a piece for in-app purchase,NA
metamusic02,Non-Consumable,tchaikovsky_violin_concerto_mvmt23,tchaikovsky_violin_concerto_mvmt23,YES,10,"Violin Concerto, op. 35, Mvmts 2-3","Violin Concerto, op. 35, Mvmts 2-3",/Users/yushenhan/Dropbox/MMExecutives/IAPs/IAP_screenshot_2560×1600.png,Now,None,a single downloadable movement of a piece for in-app purchase,NA
metamusic02,Non-Consumable,wieniawski_violin_concerto_2_mvmts12,wieniawski_violin_concerto_2_mvmts12,YES,10,"Violin Concerto #2, op. 22, Mvmts 1-2","Violin Concerto #2, op. 22, Mvmts 1-2",/Users/yushenhan/Dropbox/MMExecutives/IAPs/IAP_screenshot_2560×1600.png,Now,None,a single downloadable movement of a piece for in-app purchase,NA
metamusic02,Non-Consumable,wieniawski_violin_concerto_2_mvmt3,wieniawski_violin_concerto_2_mvmt3,YES,10,"Violin Concerto #2, op. 22, Mvmt 3","Violin Concerto #2, op. 22, Mvmt 3",/Users/yushenhan/Dropbox/MMExecutives/IAPs/IAP_screenshot_2560×1600.png,Now,None,a single downloadable movement of a piece for in-app purchase,NA
metamusic02,Non-Consumable,bach_cpe_cello_concerto_mvmt1,bach_cpe_cello_concerto_mvmt1,YES,10,"Cello Concerto in A Minor, Wq 170, Mvmt 1","Cello Concerto in A Minor, Wq 170, Mvmt 1",/Users/yushenhan/Dropbox/MMExecutives/IAPs/IAP_screenshot_2560×1600.png,Now,None,a single downloadable movement of a piece for in-app purchase,NA
metamusic02,Non-Consumable,bach_cpe_cello_concerto_mvmt2,bach_cpe_cello_concerto_mvmt2,YES,10,"Cello Concerto in A Minor, Wq 170, Mvmt 2","Cello Concerto in A Minor, Wq 170, Mvmt 2",/Users/yushenhan/Dropbox/MMExecutives/IAPs/IAP_screenshot_2560×1600.png,Now,None,a single downloadable movement of a piece for in-app purchase,NA
metamusic02,Non-Consumable,bach_cpe_cello_concerto_mvmt3,bach_cpe_cello_concerto_mvmt3,YES,10,"Cello Concerto in A Minor, Wq 170, Mvmt 3","Cello Concerto in A Minor, Wq 170, Mvmt 3",/Users/yushenhan/Dropbox/MMExecutives/IAPs/IAP_screenshot_2560×1600.png,Now,None,a single downloadable movement of a piece for in-app purchase,NA
metamusic02,Non-Consumable,boccherini_cello_concerto_9_mvmt1,boccherini_cello_concerto_9_mvmt1,YES,10,"Cello Concerto #9 in B flat, G. 482, Mvmt 1","Cello Concerto #9 in B flat, G. 482, Mvmt 1",/Users/yushenhan/Dropbox/MMExecutives/IAPs/IAP_screenshot_2560×1600.png,Now,None,a single downloadable movement of a piece for in-app purchase,NA
metamusic02,Non-Consumable,boccherini_cello_concerto_9_mvmt2,boccherini_cello_concerto_9_mvmt2,YES,10,"Cello Concerto #9 in B flat, G. 482, Mvmt 2","Cello Concerto #9 in B flat, G. 482, Mvmt 2",/Users/yushenhan/Dropbox/MMExecutives/IAPs/IAP_screenshot_2560×1600.png,Now,None,a single downloadable movement of a piece for in-app purchase,NA
metamusic02,Non-Consumable,boccherini_cello_concerto_9_mvmt3,boccherini_cello_concerto_9_mvmt3,YES,10,"Cello Concerto #9 in B flat, G. 482, Mvmt 3","Cello Concerto #9 in B flat, G. 482, Mvmt 3",/Users/yushenhan/Dropbox/MMExecutives/IAPs/IAP_screenshot_2560×1600.png,Now,None,a single downloadable movement of a piece for in-app purchase,NA
metamusic02,Non-Consumable,dvorak_cello_concerto_mvmt1,dvorak_cello_concerto_mvmt1,YES,10,"Cello Concerto, op. 104, Mvmt 1","Cello Concerto, op. 104, Mvmt 1",/Users/yushenhan/Dropbox/MMExecutives/IAPs/IAP_screenshot_2560×1600.png,Now,None,a single downloadable movement of a piece for in-app purchase,NA
metamusic02,Non-Consumable,dvorak_cello_concerto_mvmt2,dvorak_cello_concerto_mvmt2,YES,10,"Cello Concerto, op. 104, Mvmt 2","Cello Concerto, op. 104, Mvmt 2",/Users/yushenhan/Dropbox/MMExecutives/IAPs/IAP_screenshot_2560×1600.png,Now,None,a single downloadable movement of a piece for in-app purchase,NA
metamusic02,Non-Consumable,dvorak_cello_concerto_mvmt3,dvorak_cello_concerto_mvmt3,YES,10,"Cello Concerto, op. 104, Mvmt 3","Cello Concerto, op. 104, Mvmt 3",/Users/yushenhan/Dropbox/MMExecutives/IAPs/IAP_screenshot_2560×1600.png,Now,None,a single downloadable movement of a piece for in-app purchase,NA
metamusic02,Non-Consumable,haydn_cello_concerto_1_mvmt2,haydn_cello_concerto_1_mvmt2,YES,10,"Cello Concerto #1 in C, Hob. VIIb/1, Mvmt 2","Cello Concerto #1 in C, Hob. VIIb/1, Mvmt 2",/Users/yushenhan/Dropbox/MMExecutives/IAPs/IAP_screenshot_2560×1600.png,Now,None,a single downloadable movement of a piece for in-app purchase,NA
metamusic02,Non-Consumable,haydn_cello_concerto_1_mvmt3,haydn_cello_concerto_1_mvmt3,YES,10,"Cello Concerto #1 in C, Hob. VIIb/1, Mvmt 3","Cello Concerto #1 in C, Hob. VIIb/1, Mvmt 3",/Users/yushenhan/Dropbox/MMExecutives/IAPs/IAP_screenshot_2560×1600.png,Now,None,a single downloadable movement of a piece for in-app purchase,NA
metamusic02,Non-Consumable,haydn_cello_concerto_2_mvmt1,haydn_cello_concerto_2_mvmt1,YES,10,"Cello Concerto #2 in D, Hob. VIIb/2, Mvmt 1","Cello Concerto #2 in D, Hob. VIIb/2, Mvmt 1",/Users/yushenhan/Dropbox/MMExecutives/IAPs/IAP_screenshot_2560×1600.png,Now,None,a single downloadable movement of a piece for in-app purchase,NA
metamusic02,Non-Consumable,haydn_cello_concerto_2_mvmt2,haydn_cello_concerto_2_mvmt2,YES,10,"Cello Concerto #2 in D, Hob. VIIb/2, Mvmt 2","Cello Concerto #2 in D, Hob. VIIb/2, Mvmt 2",/Users/yushenhan/Dropbox/MMExecutives/IAPs/IAP_screenshot_2560×1600.png,Now,None,a single downloadable movement of a piece for in-app purchase,NA
metamusic02,Non-Consumable,haydn_cello_concerto_2_mvmt3,haydn_cello_concerto_2_mvmt3,YES,10,"Cello Concerto #2 in D, Hob. VIIb/2, Mvmt 3","Cello Concerto #2 in D, Hob. VIIb/2, Mvmt 3",/Users/yushenhan/Dropbox/MMExecutives/IAPs/IAP_screenshot_2560×1600.png,Now,None,a single downloadable movement of a piece for in-app purchase,NA
metamusic02,Non-Consumable,schumann_cello_concerto_satz12,schumann_cello_concerto_satz12,YES,10,"Cello Concerto, op. 129, Mvmts 1-2","Cello Concerto, op. 129, Mvmts 1-2",/Users/yushenhan/Dropbox/MMExecutives/IAPs/IAP_screenshot_2560×1600.png,Now,None,a single downloadable movement of a piece for in-app purchase,NA
metamusic02,Non-Consumable,tchaikovsky_rococo_variations,tchaikovsky_rococo_variations,YES,10,"Variations on a Rococo Theme, Op.33, for Cello and Rrchestra","Variations on a Rococo Theme, Op.33, for Cello and Rrchestra",/Users/yushenhan/Dropbox/MMExecutives/IAPs/IAP_screenshot_2560×1600.png,Now,None,a single downloadable movement of a piece for in-app purchase,NA
metamusic02,Non-Consumable,hoffmeister_viola_concerto_mvmt1,hoffmeister_viola_concerto_mvmt1,YES,10,"Viola Concerto in D Major, Mvmt 1","Viola Concerto in D Major, Mvmt 1",/Users/yushenhan/Dropbox/MMExecutives/IAPs/IAP_screenshot_2560×1600.png,Now,None,a single downloadable movement of a piece for in-app purchase,NA
metamusic02,Non-Consumable,hoffmeister_viola_concerto_mvmt2,hoffmeister_viola_concerto_mvmt2,YES,10,"Viola Concerto in D Major, Mvmt 2","Viola Concerto in D Major, Mvmt 2",/Users/yushenhan/Dropbox/MMExecutives/IAPs/IAP_screenshot_2560×1600.png,Now,None,a single downloadable movement of a piece for in-app purchase,NA
metamusic02,Non-Consumable,hoffmeister_viola_concerto_mvmt3,hoffmeister_viola_concerto_mvmt3,YES,10,"Viola Concerto in D Major, Mvmt 3","Viola Concerto in D Major, Mvmt 3",/Users/yushenhan/Dropbox/MMExecutives/IAPs/IAP_screenshot_2560×1600.png,Now,None,a single downloadable movement of a piece for in-app purchase,NA
metamusic02,Non-Consumable,stamitz_viola_concerto_mvmt1,stamitz_viola_concerto_mvmt1,YES,10,"Viola Concerto in D Major, Op.1, Mvmt 1","Viola Concerto in D Major, Op.1, Mvmt 1",/Users/yushenhan/Dropbox/MMExecutives/IAPs/IAP_screenshot_2560×1600.png,Now,None,a single downloadable movement of a piece for in-app purchase,NA
metamusic02,Non-Consumable,stamitz_viola_concerto_mvmt2,stamitz_viola_concerto_mvmt2,YES,10,"Viola Concerto in D Major, Op.1, Mvmt 2","Viola Concerto in D Major, Op.1, Mvmt 2",/Users/yushenhan/Dropbox/MMExecutives/IAPs/IAP_screenshot_2560×1600.png,Now,None,a single downloadable movement of a piece for in-app purchase,NA
metamusic02,Non-Consumable,stamitz_viola_concerto_mvmt3,stamitz_viola_concerto_mvmt3,YES,10,"Viola Concerto in D Major, Op.1, Mvmt 3","Viola Concerto in D Major, Op.1, Mvmt 3",/Users/yushenhan/Dropbox/MMExecutives/IAPs/IAP_screenshot_2560×1600.png,Now,None,a single downloadable movement of a piece for in-app purchase,NA
metamusic02,Non-Consumable,handel_oboe_concerto_1_mvmt12,handel_oboe_concerto_1_mvmt12,YES,10,"Oboe Concerto #1 in B Flat, HWV 301, Mvmts 1-2","Oboe Concerto #1 in B Flat, HWV 301, Mvmts 1-2",/Users/yushenhan/Dropbox/MMExecutives/IAPs/IAP_screenshot_2560×1600.png,Now,None,a single downloadable movement of a piece for in-app purchase,NA
metamusic02,Non-Consumable,handel_oboe_concerto_1_mvmt3,handel_oboe_concerto_1_mvmt3,YES,10,"Oboe Concerto #1 in B Flat, HWV 301, Mvmt 3","Oboe Concerto #1 in B Flat, HWV 301, Mvmt 3",/Users/yushenhan/Dropbox/MMExecutives/IAPs/IAP_screenshot_2560×1600.png,Now,None,a single downloadable movement of a piece for in-app purchase,NA
metamusic02,Non-Consumable,handel_oboe_concerto_1_mvmt4,handel_oboe_concerto_1_mvmt4,YES,10,"Oboe Concerto #1 in B Flat, HWV 301, Mvmt 4","Oboe Concerto #1 in B Flat, HWV 301, Mvmt 4",/Users/yushenhan/Dropbox/MMExecutives/IAPs/IAP_screenshot_2560×1600.png,Now,None,a single downloadable movement of a piece for in-app purchase,NA
metamusic02,Non-Consumable,mozart_oboe_concerto_mvmt1,mozart_oboe_concerto_mvmt1,YES,10,"Oboe Concerto in C, K. 314, Mvmt 1","Oboe Concerto in C, K. 314, Mvmt 1",/Users/yushenhan/Dropbox/MMExecutives/IAPs/IAP_screenshot_2560×1600.png,Now,None,a single downloadable movement of a piece for in-app purchase,NA
metamusic02,Non-Consumable,mozart_oboe_concerto_mvmt2,mozart_oboe_concerto_mvmt2,YES,10,"Oboe Concerto in C, K. 314, Mvmt 2","Oboe Concerto in C, K. 314, Mvmt 2",/Users/yushenhan/Dropbox/MMExecutives/IAPs/IAP_screenshot_2560×1600.png,Now,None,a single downloadable movement of a piece for in-app purchase,NA
metamusic02,Non-Consumable,mozart_oboe_concerto_mvmt3,mozart_oboe_concerto_mvmt3,YES,10,"Oboe Concerto in C, K. 314, Mvmt 3","Oboe Concerto in C, K. 314, Mvmt 3",/Users/yushenhan/Dropbox/MMExecutives/IAPs/IAP_screenshot_2560×1600.png,Now,None,a single downloadable movement of a piece for in-app purchase,NA
metamusic02,Non-Consumable,mozart_oboe_quartet_mvmt1,mozart_oboe_quartet_mvmt1,YES,10,"Quartet for Oboe and Strings, K. 370, Mvmt 1","Quartet for Oboe and Strings, K. 370, Mvmt 1",/Users/yushenhan/Dropbox/MMExecutives/IAPs/IAP_screenshot_2560×1600.png,Now,None,a single downloadable movement of a piece for in-app purchase,NA
metamusic02,Non-Consumable,mozart_oboe_quartet_mvmt2,mozart_oboe_quartet_mvmt2,YES,10,"Quartet for Oboe and Strings, K. 370, Mvmt 2","Quartet for Oboe and Strings, K. 370, Mvmt 2",/Users/yushenhan/Dropbox/MMExecutives/IAPs/IAP_screenshot_2560×1600.png,Now,None,a single downloadable movement of a piece for in-app purchase,NA
metamusic02,Non-Consumable,mozart_oboe_quartet_mvmt3,mozart_oboe_quartet_mvmt3,YES,10,"Quartet for Oboe and Strings, K. 370, Mvmt 3","Quartet for Oboe and Strings, K. 370, Mvmt 3",/Users/yushenhan/Dropbox/MMExecutives/IAPs/IAP_screenshot_2560×1600.png,Now,None,a single downloadable movement of a piece for in-app purchase,NA
metamusic02,Non-Consumable,vivaldi_oboe_concerto_d_mvmt1,vivaldi_oboe_concerto_d_mvmt1,YES,10,"Oboe Concerto in D Minor, RV 454, Mvmt 1","Oboe Concerto in D Minor, RV 454, Mvmt 1",/Users/yushenhan/Dropbox/MMExecutives/IAPs/IAP_screenshot_2560×1600.png,Now,None,a single downloadable movement of a piece for in-app purchase,NA
metamusic02,Non-Consumable,vivaldi_oboe_concerto_d_mvmt2,vivaldi_oboe_concerto_d_mvmt2,YES,10,"Oboe Concerto in D Minor, RV 454, Mvmt 2","Oboe Concerto in D Minor, RV 454, Mvmt 2",/Users/yushenhan/Dropbox/MMExecutives/IAPs/IAP_screenshot_2560×1600.png,Now,None,a single downloadable movement of a piece for in-app purchase,NA
metamusic02,Non-Consumable,vivaldi_oboe_concerto_d_mvmt3,vivaldi_oboe_concerto_d_mvmt3,YES,10,"Oboe Concerto in D Minor, RV 454, Mvmt 3","Oboe Concerto in D Minor, RV 454, Mvmt 3",/Users/yushenhan/Dropbox/MMExecutives/IAPs/IAP_screenshot_2560×1600.png,Now,None,a single downloadable movement of a piece for in-app purchase,NA
metamusic02,Non-Consumable,gluck_blessed_spirits,gluck_blessed_spirits,YES,10,"Dance of the Blessed Spirits (Act II) from Orfeo ed Euridice, Wq.30","Dance of the Blessed Spirits (Act II) from Orfeo ed Euridice, Wq.30",/Users/yushenhan/Dropbox/MMExecutives/IAPs/IAP_screenshot_2560×1600.png,Now,None,a single downloadable movement of a piece for in-app purchase,NA
metamusic02,Non-Consumable,mozart_flute_andante,mozart_flute_andante,YES,10,"Andante in C Major for Flute and Orchestra, K. 315","Andante in C Major for Flute and Orchestra, K. 315",/Users/yushenhan/Dropbox/MMExecutives/IAPs/IAP_screenshot_2560×1600.png,Now,None,a single downloadable movement of a piece for in-app purchase,NA
metamusic02,Non-Consumable,mozart_flute_concerto_d_mvmt1,mozart_flute_concerto_d_mvmt1,YES,10,"Flute Concerto in D, K. 314, Mvmt 1","Flute Concerto in D, K. 314, Mvmt 1",/Users/yushenhan/Dropbox/MMExecutives/IAPs/IAP_screenshot_2560×1600.png,Now,None,a single downloadable movement of a piece for in-app purchase,NA
metamusic02,Non-Consumable,mozart_flute_concerto_d_mvmt2,mozart_flute_concerto_d_mvmt2,YES,10,"Flute Concerto in D, K. 314, Mvmt 2","Flute Concerto in D, K. 314, Mvmt 2",/Users/yushenhan/Dropbox/MMExecutives/IAPs/IAP_screenshot_2560×1600.png,Now,None,a single downloadable movement of a piece for in-app purchase,NA
metamusic02,Non-Consumable,mozart_flute_concerto_d_mvmt3,mozart_flute_concerto_d_mvmt3,YES,10,"Flute Concerto in D, K. 314, Mvmt 3","Flute Concerto in D, K. 314, Mvmt 3",/Users/yushenhan/Dropbox/MMExecutives/IAPs/IAP_screenshot_2560×1600.png,Now,None,a single downloadable movement of a piece for in-app purchase,NA
metamusic02,Non-Consumable,mozart_flute_concerto_g_mvmt1,mozart_flute_concerto_g_mvmt1,YES,10,"Flute Concerto in G, K. 313, Mvmt 1","Flute Concerto in G, K. 313, Mvmt 1",/Users/yushenhan/Dropbox/MMExecutives/IAPs/IAP_screenshot_2560×1600.png,Now,None,a single downloadable movement of a piece for in-app purchase,NA
metamusic02,Non-Consumable,mozart_flute_concerto_g_mvmt2,mozart_flute_concerto_g_mvmt2,YES,10,"Flute Concerto in G, K. 313, Mvmt 2","Flute Concerto in G, K. 313, Mvmt 2",/Users/yushenhan/Dropbox/MMExecutives/IAPs/IAP_screenshot_2560×1600.png,Now,None,a single downloadable movement of a piece for in-app purchase,NA
metamusic02,Non-Consumable,mozart_flute_concerto_g_mvmt3,mozart_flute_concerto_g_mvmt3,YES,10,"Flute Concerto in G, K. 313, Mvmt 3","Flute Concerto in G, K. 313, Mvmt 3",/Users/yushenhan/Dropbox/MMExecutives/IAPs/IAP_screenshot_2560×1600.png,Now,None,a single downloadable movement of a piece for in-app purchase,NA
metamusic02,Non-Consumable,mozart_flute_quartet_d_mvmt1,mozart_flute_quartet_d_mvmt1,YES,10,"Flute Quartet in D Major, K. 285, Mvmt 1","Flute Quartet in D Major, K. 285, Mvmt 1",/Users/yushenhan/Dropbox/MMExecutives/IAPs/IAP_screenshot_2560×1600.png,Now,None,a single downloadable movement of a piece for in-app purchase,NA
metamusic02,Non-Consumable,mozart_flute_quartet_d_mvmt23,mozart_flute_quartet_d_mvmt23,YES,10,"Flute Quartet in D Major, K. 285, Mvmts 2-3","Flute Quartet in D Major, K. 285, Mvmts 2-3",/Users/yushenhan/Dropbox/MMExecutives/IAPs/IAP_screenshot_2560×1600.png,Now,None,a single downloadable movement of a piece for in-app purchase,NA
metamusic02,Non-Consumable,mozart_flute_quartet_c_mvmt1,mozart_flute_quartet_c_mvmt1,YES,10,"Flute Quartet in C Major, K. 285b, Mvmt 1","Flute Quartet in C Major, K. 285b, Mvmt 1",/Users/yushenhan/Dropbox/MMExecutives/IAPs/IAP_screenshot_2560×1600.png,Now,None,a single downloadable movement of a piece for in-app purchase,NA
metamusic02,Non-Consumable,mozart_flute_quartet_c_mvmt2,mozart_flute_quartet_c_mvmt2,YES,10,"Flute Quartet in C Major, K. 285b, Mvmt 2","Flute Quartet in C Major, K. 285b, Mvmt 2",/Users/yushenhan/Dropbox/MMExecutives/IAPs/IAP_screenshot_2560×1600.png,Now,None,a single downloadable movement of a piece for in-app purchase,NA
metamusic02,Non-Consumable,mozart_flute_quartet_a_mvmt1,mozart_flute_quartet_a_mvmt1,YES,10,"Flute Quartet in A Major, K. 298, Mvmt 1","Flute Quartet in A Major, K. 298, Mvmt 1",/Users/yushenhan/Dropbox/MMExecutives/IAPs/IAP_screenshot_2560×1600.png,Now,None,a single downloadable movement of a piece for in-app purchase,NA
metamusic02,Non-Consumable,mozart_flute_quartet_a_mvmt2,mozart_flute_quartet_a_mvmt2,YES,10,"Flute Quartet in A Major, K. 298, Mvmt 2","Flute Quartet in A Major, K. 298, Mvmt 2",/Users/yushenhan/Dropbox/MMExecutives/IAPs/IAP_screenshot_2560×1600.png,Now,None,a single downloadable movement of a piece for in-app purchase,NA
metamusic02,Non-Consumable,mozart_flute_quartet_a_mvmt3,mozart_flute_quartet_a_mvmt3,YES,10,"Flute Quartet in A Major, K. 298, Mvmt 3","Flute Quartet in A Major, K. 298, Mvmt 3",/Users/yushenhan/Dropbox/MMExecutives/IAPs/IAP_screenshot_2560×1600.png,Now,None,a single downloadable movement of a piece for in-app purchase,NA
metamusic02,Non-Consumable,reinecke_flute_concerto_mvmt1,reinecke_flute_concerto_mvmt1,YES,10,"Flute Concerto, Op. 283, Mvmt 1","Flute Concerto, Op. 283, Mvmt 1",/Users/yushenhan/Dropbox/MMExecutives/IAPs/IAP_screenshot_2560×1600.png,Now,None,a single downloadable movement of a piece for in-app purchase,NA
metamusic02,Non-Consumable,reinecke_flute_concerto_mvmt2,reinecke_flute_concerto_mvmt2,YES,10,"Flute Concerto, Op. 283, Mvmt 2","Flute Concerto, Op. 283, Mvmt 2",/Users/yushenhan/Dropbox/MMExecutives/IAPs/IAP_screenshot_2560×1600.png,Now,None,a single downloadable movement of a piece for in-app purchase,NA
metamusic02,Non-Consumable,reinecke_flute_concerto_mvmt3,reinecke_flute_concerto_mvmt3,YES,10,"Flute Concerto, Op. 283, Mvmt 3","Flute Concerto, Op. 283, Mvmt 3",/Users/yushenhan/Dropbox/MMExecutives/IAPs/IAP_screenshot_2560×1600.png,Now,None,a single downloadable movement of a piece for in-app purchase,NA
metamusic02,Non-Consumable,vivaldi_bassoon_concerto_e_mvmt1,vivaldi_bassoon_concerto_e_mvmt1,YES,10,"Bassoon Concerto in E Minor, RV 484, Mvmt 1","Bassoon Concerto in E Minor, RV 484, Mvmt 1",/Users/yushenhan/Dropbox/MMExecutives/IAPs/IAP_screenshot_2560×1600.png,Now,None,a single downloadable movement of a piece for in-app purchase,NA
metamusic02,Non-Consumable,vivaldi_bassoon_concerto_e_mvmt2,vivaldi_bassoon_concerto_e_mvmt2,YES,10,"Bassoon Concerto in E Minor, RV 484, Mvmt 2","Bassoon Concerto in E Minor, RV 484, Mvmt 2",/Users/yushenhan/Dropbox/MMExecutives/IAPs/IAP_screenshot_2560×1600.png,Now,None,a single downloadable movement of a piece for in-app purchase,NA
metamusic02,Non-Consumable,vivaldi_bassoon_concerto_e_mvmt3,vivaldi_bassoon_concerto_e_mvmt3,YES,10,"Bassoon Concerto in E Minor, RV 484, Mvmt 3","Bassoon Concerto in E Minor, RV 484, Mvmt 3",/Users/yushenhan/Dropbox/MMExecutives/IAPs/IAP_screenshot_2560×1600.png,Now,None,a single downloadable movement of a piece for in-app purchase,NA
metamusic02,Non-Consumable,vivaldi_bassoon_concerto_c_mvmt1,vivaldi_bassoon_concerto_c_mvmt1,YES,10,"Bassoon Concerto in C Major, RV 471, Mvmt 1","Bassoon Concerto in C Major, RV 471, Mvmt 1",/Users/yushenhan/Dropbox/MMExecutives/IAPs/IAP_screenshot_2560×1600.png,Now,None,a single downloadable movement of a piece for in-app purchase,NA
metamusic02,Non-Consumable,vivaldi_bassoon_concerto_c_mvmt2,vivaldi_bassoon_concerto_c_mvmt2,YES,10,"Bassoon Concerto in C Major, RV 471, Mvmt 2","Bassoon Concerto in C Major, RV 471, Mvmt 2",/Users/yushenhan/Dropbox/MMExecutives/IAPs/IAP_screenshot_2560×1600.png,Now,None,a single downloadable movement of a piece for in-app purchase,NA
metamusic02,Non-Consumable,vivaldi_bassoon_concerto_c_mvmt3,vivaldi_bassoon_concerto_c_mvmt3,YES,10,"Bassoon Concerto in C Major, RV 471, Mvmt 3","Bassoon Concerto in C Major, RV 471, Mvmt 3",/Users/yushenhan/Dropbox/MMExecutives/IAPs/IAP_screenshot_2560×1600.png,Now,None,a single downloadable movement of a piece for in-app purchase,NA
metamusic02,Non-Consumable,mozart_clarinet_concerto_mvmt1,mozart_clarinet_concerto_mvmt1,YES,10,"Clarinet Concerto, K. 622, Mvmt 1","Clarinet Concerto, K. 622, Mvmt 1",/Users/yushenhan/Dropbox/MMExecutives/IAPs/IAP_screenshot_2560×1600.png,Now,None,a single downloadable movement of a piece for in-app purchase,NA
metamusic02,Non-Consumable,mozart_clarinet_concerto_mvmt2,mozart_clarinet_concerto_mvmt2,YES,10,"Clarinet Concerto, K. 622, Mvmt 2","Clarinet Concerto, K. 622, Mvmt 2",/Users/yushenhan/Dropbox/MMExecutives/IAPs/IAP_screenshot_2560×1600.png,Now,None,a single downloadable movement of a piece for in-app purchase,NA
metamusic02,Non-Consumable,mozart_clarinet_concerto_mvmt3,mozart_clarinet_concerto_mvmt3,YES,10,"Clarinet Concerto, K. 622, Mvmt 3","Clarinet Concerto, K. 622, Mvmt 3",/Users/yushenhan/Dropbox/MMExecutives/IAPs/IAP_screenshot_2560×1600.png,Now,None,a single downloadable movement of a piece for in-app purchase,NA
metamusic02,Non-Consumable,mozart_clarinet_quintet_mvmt1,mozart_clarinet_quintet_mvmt1,YES,10,"Quintet for Clarinet and Strings, K. 581, Mvmt 1","Quintet for Clarinet and Strings, K. 581, Mvmt 1",/Users/yushenhan/Dropbox/MMExecutives/IAPs/IAP_screenshot_2560×1600.png,Now,None,a single downloadable movement of a piece for in-app purchase,NA
metamusic02,Non-Consumable,mozart_clarinet_quintet_mvmt2,mozart_clarinet_quintet_mvmt2,YES,10,"Quintet for Clarinet and Strings, K. 581, Mvmt 2","Quintet for Clarinet and Strings, K. 581, Mvmt 2",/Users/yushenhan/Dropbox/MMExecutives/IAPs/IAP_screenshot_2560×1600.png,Now,None,a single downloadable movement of a piece for in-app purchase,NA
metamusic02,Non-Consumable,mozart_clarinet_quintet_mvmt3,mozart_clarinet_quintet_mvmt3,YES,10,"Quintet for Clarinet and Strings, K. 581, Mvmt 3","Quintet for Clarinet and Strings, K. 581, Mvmt 3",/Users/yushenhan/Dropbox/MMExecutives/IAPs/IAP_screenshot_2560×1600.png,Now,None,a single downloadable movement of a piece for in-app purchase,NA
metamusic02,Non-Consumable,mozart_clarinet_quintet_mvmt4,mozart_clarinet_quintet_mvmt4,YES,10,"Quintet for Clarinet and Strings, K. 581, Mvmt 4","Quintet for Clarinet and Strings, K. 581, Mvmt 4",/Users/yushenhan/Dropbox/MMExecutives/IAPs/IAP_screenshot_2560×1600.png,Now,None,a single downloadable movement of a piece for in-app purchase,NA
metamusic02,Non-Consumable,weber_clarinet_concertino,weber_clarinet_concertino,YES,10,"Clarinet Concertino in E flat, op. 26","Clarinet Concertino in E flat, op. 26",/Users/yushenhan/Dropbox/MMExecutives/IAPs/IAP_screenshot_2560×1600.png,Now,None,a single downloadable movement of a piece for in-app purchase,NA
metamusic02,Non-Consumable,weber_clarinet_concerto_1_mvmt1,weber_clarinet_concerto_1_mvmt1,YES,10,"Clarinet Concerto #1 in F Minor, op. 73, Mvmt 1","Clarinet Concerto #1 in F Minor, op. 73, Mvmt 1",/Users/yushenhan/Dropbox/MMExecutives/IAPs/IAP_screenshot_2560×1600.png,Now,None,a single downloadable movement of a piece for in-app purchase,NA
metamusic02,Non-Consumable,weber_clarinet_concerto_1_mvmt2,weber_clarinet_concerto_1_mvmt2,YES,10,"Clarinet Concerto #1 in F Minor, op. 73, Mvmt 2","Clarinet Concerto #1 in F Minor, op. 73, Mvmt 2",/Users/yushenhan/Dropbox/MMExecutives/IAPs/IAP_screenshot_2560×1600.png,Now,None,a single downloadable movement of a piece for in-app purchase,NA
metamusic02,Non-Consumable,weber_clarinet_concerto_1_mvmt3,weber_clarinet_concerto_1_mvmt3,YES,10,"Clarinet Concerto #1 in F Minor, op. 73, Mvmt 3","Clarinet Concerto #1 in F Minor, op. 73, Mvmt 3",/Users/yushenhan/Dropbox/MMExecutives/IAPs/IAP_screenshot_2560×1600.png,Now,None,a single downloadable movement of a piece for in-app purchase,NA
metamusic02,Non-Consumable,fasch_trumpet_concerto_mvmt1,fasch_trumpet_concerto_mvmt1,YES,10,"Trumpet Concerto in D Major, Mvmt 1","Trumpet Concerto in D Major, Mvmt 1",/Users/yushenhan/Dropbox/MMExecutives/IAPs/IAP_screenshot_2560×1600.png,Now,None,a single downloadable movement of a piece for in-app purchase,NA
metamusic02,Non-Consumable,fasch_trumpet_concerto_mvmt2,fasch_trumpet_concerto_mvmt2,YES,10,"Trumpet Concerto in D Major, Mvmt 2","Trumpet Concerto in D Major, Mvmt 2",/Users/yushenhan/Dropbox/MMExecutives/IAPs/IAP_screenshot_2560×1600.png,Now,None,a single downloadable movement of a piece for in-app purchase,NA
metamusic02,Non-Consumable,fasch_trumpet_concerto_mvmt3,fasch_trumpet_concerto_mvmt3,YES,10,"Trumpet Concerto in D Major, Mvmt 3","Trumpet Concerto in D Major, Mvmt 3",/Users/yushenhan/Dropbox/MMExecutives/IAPs/IAP_screenshot_2560×1600.png,Now,None,a single downloadable movement of a piece for in-app purchase,NA
metamusic02,Non-Consumable,haydn_trumpet_concerto_mvmt1,haydn_trumpet_concerto_mvmt1,YES,10,"Trumpet Concerto in E flat, Hob. VIIe:1, Mvmt 1","Trumpet Concerto in E flat, Hob. VIIe:1, Mvmt 1",/Users/yushenhan/Dropbox/MMExecutives/IAPs/IAP_screenshot_2560×1600.png,Now,None,a single downloadable movement of a piece for in-app purchase,NA
metamusic02,Non-Consumable,haydn_trumpet_concerto_mvmt2,haydn_trumpet_concerto_mvmt2,YES,10,"Trumpet Concerto in E flat, Hob. VIIe:1, Mvmt 2","Trumpet Concerto in E flat, Hob. VIIe:1, Mvmt 2",/Users/yushenhan/Dropbox/MMExecutives/IAPs/IAP_screenshot_2560×1600.png,Now,None,a single downloadable movement of a piece for in-app purchase,NA
metamusic02,Non-Consumable,haydn_trumpet_concerto_mvmt3,haydn_trumpet_concerto_mvmt3,YES,10,"Trumpet Concerto in E flat, Hob. VIIe:1, Mvmt 3","Trumpet Concerto in E flat, Hob. VIIe:1, Mvmt 3",/Users/yushenhan/Dropbox/MMExecutives/IAPs/IAP_screenshot_2560×1600.png,Now,None,a single downloadable movement of a piece for in-app purchase,NA
metamusic02,Non-Consumable,mozart_horn_concerto_2_mvmt1,mozart_horn_concerto_2_mvmt1,YES,10,"Horn Concerto #2, K. 495, Mvmt 1","Horn Concerto #2, K. 495, Mvmt 1",/Users/yushenhan/Dropbox/MMExecutives/IAPs/IAP_screenshot_2560×1600.png,Now,None,a single downloadable movement of a piece for in-app purchase,NA
metamusic02,Non-Consumable,mozart_horn_concerto_2_mvmt2,mozart_horn_concerto_2_mvmt2,YES,10,"Horn Concerto #2, K. 495, Mvmt 2","Horn Concerto #2, K. 495, Mvmt 2",/Users/yushenhan/Dropbox/MMExecutives/IAPs/IAP_screenshot_2560×1600.png,Now,None,a single downloadable movement of a piece for in-app purchase,NA
metamusic02,Non-Consumable,mozart_horn_concerto_2_mvmt3,mozart_horn_concerto_2_mvmt3,YES,10,"Horn Concerto #2, K. 495, Mvmt 3","Horn Concerto #2, K. 495, Mvmt 3",/Users/yushenhan/Dropbox/MMExecutives/IAPs/IAP_screenshot_2560×1600.png,Now,None,a single downloadable movement of a piece for in-app purchase,NA
metamusic02,Non-Consumable,mozart_horn_concerto_3_mvmt1,mozart_horn_concerto_3_mvmt1,YES,10,"Horn Concerto #3, K. 447, Mvmt 1","Horn Concerto #3, K. 447, Mvmt 1",/Users/yushenhan/Dropbox/MMExecutives/IAPs/IAP_screenshot_2560×1600.png,Now,None,a single downloadable movement of a piece for in-app purchase,NA
metamusic02,Non-Consumable,mozart_horn_concerto_3_mvmt2,mozart_horn_concerto_3_mvmt2,YES,10,"Horn Concerto #3, K. 447, Mvmt 2","Horn Concerto #3, K. 447, Mvmt 2",/Users/yushenhan/Dropbox/MMExecutives/IAPs/IAP_screenshot_2560×1600.png,Now,None,a single downloadable movement of a piece for in-app purchase,NA
metamusic02,Non-Consumable,mozart_horn_concerto_3_mvmt3,mozart_horn_concerto_3_mvmt3,YES,10,"Horn Concerto #3, K. 447, Mvmt 3","Horn Concerto #3, K. 447, Mvmt 3",/Users/yushenhan/Dropbox/MMExecutives/IAPs/IAP_screenshot_2560×1600.png,Now,None,a single downloadable movement of a piece for in-app purchase,NA
metamusic02,Non-Consumable,strauss_horn_concerto_2_mvmts12,strauss_horn_concerto_2_mvmts12,YES,10,"Horn Concerto #2, AV 132, Mvmts 1-2","Horn Concerto #2, AV 132, Mvmts 1-2",/Users/yushenhan/Dropbox/MMExecutives/IAPs/IAP_screenshot_2560×1600.png,Now,None,a single downloadable movement of a piece for in-app purchase,NA
metamusic02,Non-Consumable,strauss_horn_concerto_2_mvmt3,strauss_horn_concerto_2_mvmt3,YES,10,"Horn Concerto #2, AV 132, Mvmt 3","Horn Concerto #2, AV 132, Mvmt 3",/Users/yushenhan/Dropbox/MMExecutives/IAPs/IAP_screenshot_2560×1600.png,Now,None,a single downloadable movement of a piece for in-app purchase,NA
metamusic02,Non-Consumable,albinoni_dmaj_oboe_concerto_mvmt1,albinoni_dmaj_oboe_concerto_mvmt1,YES,10,"Oboe Concerto in D Major Op. 7, No. 6, Mvmt 1","Oboe Concerto in D Major Op. 7, No. 6, Mvmt 1",/Users/yushenhan/Dropbox/MMExecutives/IAPs/IAP_screenshot_2560×1600.png,Now,None,a single downloadable movement of a piece for in-app purchase,NA
metamusic02,Non-Consumable,albinoni_dmaj_oboe_concerto_mvmt3,albinoni_dmaj_oboe_concerto_mvmt3,YES,10,"Oboe Concerto in D Major Op. 7, No. 6, Mvmt 3","Oboe Concerto in D Major Op. 7, No. 6, Mvmt 3",/Users/yushenhan/Dropbox/MMExecutives/IAPs/IAP_screenshot_2560×1600.png,Now,None,a single downloadable movement of a piece for in-app purchase,NA
metamusic02,Non-Consumable,bizet_carmen_intro,bizet_carmen_intro,YES,10,Bizet: Carmen Intro to 3rd Act,Bizet: Carmen Intro to 3rd Act,/Users/yushenhan/Dropbox/MMExecutives/IAPs/IAP_screenshot_2560×1600.png,Now,None,a single downloadable movement of a piece for in-app purchase,NA
metamusic02,Non-Consumable,bizet_carmen_habanera,bizet_carmen_habanera,YES,10,Bizet: Carmen Habanera,Bizet: Carmen Habanera,/Users/yushenhan/Dropbox/MMExecutives/IAPs/IAP_screenshot_2560×1600.png,Now,None,a single downloadable movement of a piece for in-app purchase,NA
metamusic02,Non-Consumable,bruch_kol_nidrei,bruch_kol_nidrei,YES,10,"Kol Nidrei (All Vows) for Violin and Orchestra, op. 47","Kol Nidrei (All Vows) for Violin and Orchestra, op. 47",/Users/yushenhan/Dropbox/MMExecutives/IAPs/IAP_screenshot_2560×1600.png,Now,None,a single downloadable movement of a piece for in-app purchase,NA
metamusic02,Non-Consumable,debussy_cello_romance,debussy_cello_romance,YES,10,Romance for Cello and Piano,Romance for Cello and Piano,/Users/yushenhan/Dropbox/MMExecutives/IAPs/IAP_screenshot_2560×1600.png,Now,None,a single downloadable movement of a piece for in-app purchase,NA
metamusic02,Non-Consumable,debussy_violin_claire_de_lune,debussy_violin_claire_de_lune,YES,10,Clair de lune,Clair de lune,/Users/yushenhan/Dropbox/MMExecutives/IAPs/IAP_screenshot_2560×1600.png,Now,None,a single downloadable movement of a piece for in-app purchase,NA
metamusic02,Non-Consumable,debussy_violin_sonata_mvmt1,debussy_violin_sonata_mvmt1,YES,10,"Sonata for Violin and Piano, Mvmt1","Sonata for Violin and Piano, Mvmt1",/Users/yushenhan/Dropbox/MMExecutives/IAPs/IAP_screenshot_2560×1600.png,Now,None,a single downloadable movement of a piece for in-app purchase,NA
metamusic02,Non-Consumable,debussy_violin_sonata_mvmt2,debussy_violin_sonata_mvmt2,YES,10,"Sonata for Violin and Piano, Mvmt2","Sonata for Violin and Piano, Mvmt2",/Users/yushenhan/Dropbox/MMExecutives/IAPs/IAP_screenshot_2560×1600.png,Now,None,a single downloadable movement of a piece for in-app purchase,NA
metamusic02,Non-Consumable,debussy_violin_sonata_mvmt3,debussy_violin_sonata_mvmt3,YES,10,"Sonata for Violin and Piano, Mvmt3","Sonata for Violin and Piano, Mvmt3",/Users/yushenhan/Dropbox/MMExecutives/IAPs/IAP_screenshot_2560×1600.png,Now,None,a single downloadable movement of a piece for in-app purchase,NA
metamusic02,Non-Consumable,glazunov_sax_concerto,glazunov_sax_concerto,YES,20,"Concerto in E flat major for alto saxophone and string orchestra, Op. 109","Concerto in E flat major for alto saxophone and string orchestra, Op. 109",/Users/yushenhan/Dropbox/MMExecutives/IAPs/IAP_screenshot_2560×1600.png,Now,None,a single downloadable movement of a piece for in-app purchase,NA
metamusic02,Non-Consumable,glazunov_violin_concerto,glazunov_violin_concerto,YES,20,"Violin Concerto, Op.82","Violin Concerto, Op.82",/Users/yushenhan/Dropbox/MMExecutives/IAPs/IAP_screenshot_2560×1600.png,Now,None,a single downloadable movement of a piece for in-app purchase,NA
metamusic02,Non-Consumable,hubay_hejre_kati,hubay_hejre_kati,YES,10,Hubay: Hejre Kati,Hubay: Hejre Kati,/Users/yushenhan/Dropbox/MMExecutives/IAPs/IAP_screenshot_2560×1600.png,Now,None,a single downloadable movement of a piece for in-app purchase,NA
metamusic02,Non-Consumable,faure_sicilienne_flute,faure_sicilienne_flute,YES,10,"Sicilienne, Op.78 for Flute and Orchestra","Sicilienne, Op.78 for Flute and Orchestra",/Users/yushenhan/Dropbox/MMExecutives/IAPs/IAP_screenshot_2560×1600.png,Now,None,a single downloadable movement of a piece for in-app purchase,NA
metamusic02,Non-Consumable,faure_sicilienne_violin,faure_sicilienne_violin,YES,10,"Sicilienne, Op.78 for Violin and Orchestra","Sicilienne, Op.78 for Violin and Orchestra",/Users/yushenhan/Dropbox/MMExecutives/IAPs/IAP_screenshot_2560×1600.png,Now,None,a single downloadable movement of a piece for in-app purchase,NA
metamusic02,Non-Consumable,faure_sicilienne_cello,faure_sicilienne_cello,YES,10,"Sicilienne, Op.78 for Cello and Orchestra","Sicilienne, Op.78 for Cello and Orchestra",/Users/yushenhan/Dropbox/MMExecutives/IAPs/IAP_screenshot_2560×1600.png,Now,None,a single downloadable movement of a piece for in-app purchase,NA
metamusic02,Non-Consumable,mozart_ach_ich_fuhls,mozart_ach_ich_fuhls,YES,10,"Mozart: Ach ich fuhl's, es ist verschwunden","Mozart: Ach ich fuhl's, es ist verschwunden",/Users/yushenhan/Dropbox/MMExecutives/IAPs/IAP_screenshot_2560×1600.png,Now,None,a single downloadable movement of a piece for in-app purchase,NA
metamusic02,Non-Consumable,mozart_e_amore_un_ladroncello,mozart_e_amore_un_ladroncello,YES,10,"Mozart: ""E Amore un Ladroncello"" from Cosi Fan Tutte","Mozart: ""E Amore un Ladroncello"" from Cosi Fan Tutte",/Users/yushenhan/Dropbox/MMExecutives/IAPs/IAP_screenshot_2560×1600.png,Now,None,a single downloadable movement of a piece for in-app purchase,NA
metamusic02,Non-Consumable,mozart_dove_sono,mozart_dove_sono,YES,10,Mozart: Dove sono i bei momenti,Mozart: Dove sono i bei momenti,/Users/yushenhan/Dropbox/MMExecutives/IAPs/IAP_screenshot_2560×1600.png,Now,None,a single downloadable movement of a piece for in-app purchase,NA
metamusic02,Non-Consumable,mozart_martern_aller_arten,mozart_martern_aller_arten,YES,10,Mozart: Martern aller arten,Mozart: Martern aller arten,/Users/yushenhan/Dropbox/MMExecutives/IAPs/IAP_screenshot_2560×1600.png,Now,None,a single downloadable movement of a piece for in-app purchase,NA
metamusic02,Non-Consumable,mozart_haffner_rondo,mozart_haffner_rondo,YES,10,Mozart: Haffner Serenade Rondo,Mozart: Haffner Serenade Rondo,/Users/yushenhan/Dropbox/MMExecutives/IAPs/IAP_screenshot_2560×1600.png,Now,None,a single downloadable movement of a piece for in-app purchase,NA
metamusic02,Non-Consumable,mozart_mi_tradi_quell_alma_ingrata,mozart_mi_tradi_quell_alma_ingrata,YES,10,Mozart: Mi tradi quell' alma ingrata,Mozart: Mi tradi quell' alma ingrata,/Users/yushenhan/Dropbox/MMExecutives/IAPs/IAP_screenshot_2560×1600.png,Now,None,a single downloadable movement of a piece for in-app purchase,NA
metamusic02,Non-Consumable,mozart_non_piu_andrai,mozart_non_piu_andrai,YES,10,Mozart: Non piu andrai,Mozart: Non piu andrai,/Users/yushenhan/Dropbox/MMExecutives/IAPs/IAP_screenshot_2560×1600.png,Now,None,a single downloadable movement of a piece for in-app purchase,NA
metamusic02,Non-Consumable,mozart_o_zittre_nicht,mozart_o_zittre_nicht,YES,10,Mozart: O zitt're nicht,Mozart: O zitt're nicht,/Users/yushenhan/Dropbox/MMExecutives/IAPs/IAP_screenshot_2560×1600.png,Now,None,a single downloadable movement of a piece for in-app purchase,NA
metamusic02,Non-Consumable,mozart_parto_clemenza_di_tito,mozart_parto_clemenza_di_tito,YES,10,"Mozart: ""Parto parto"" from Clemenza di tito","Mozart: ""Parto parto"" from Clemenza di tito",/Users/yushenhan/Dropbox/MMExecutives/IAPs/IAP_screenshot_2560×1600.png,Now,None,a single downloadable movement of a piece for in-app purchase,NA
metamusic02,Non-Consumable,mozart_sinfonia_concertante_viola_mvmt1,mozart_sinfonia_concertante_viola_mvmt1,YES,10,"Sinfonia Concertante (Viola) in E-flat major, K. 364 (320d), Mvmt 1","Sinfonia Concertante (Viola) in E-flat major, K. 364 (320d), Mvmt 1",/Users/yushenhan/Dropbox/MMExecutives/IAPs/IAP_screenshot_2560×1600.png,Now,None,a single downloadable movement of a piece for in-app purchase,NA
metamusic02,Non-Consumable,mozart_sinfonia_concertante_viola_mvmt2,mozart_sinfonia_concertante_viola_mvmt2,YES,10,"Sinfonia Concertante (Viola) in E-flat major, K. 364 (320d), Mvmt 2","Sinfonia Concertante (Viola) in E-flat major, K. 364 (320d), Mvmt 2",/Users/yushenhan/Dropbox/MMExecutives/IAPs/IAP_screenshot_2560×1600.png,Now,None,a single downloadable movement of a piece for in-app purchase,NA
metamusic02,Non-Consumable,mozart_sinfonia_concertante_viola_mvmt3,mozart_sinfonia_concertante_viola_mvmt3,YES,10,"Sinfonia Concertante (Viola) in E-flat major, K. 364 (320d), Mvmt 3","Sinfonia Concertante (Viola) in E-flat major, K. 364 (320d), Mvmt 3",/Users/yushenhan/Dropbox/MMExecutives/IAPs/IAP_screenshot_2560×1600.png,Now,None,a single downloadable movement of a piece for in-app purchase,NA
metamusic02,Non-Consumable,mozart_smanie_implacabili,mozart_smanie_implacabili,YES,10,Mozart: Smanie implacabili,Mozart: Smanie implacabili,/Users/yushenhan/Dropbox/MMExecutives/IAPs/IAP_screenshot_2560×1600.png,Now,None,a single downloadable movement of a piece for in-app purchase,NA
metamusic02,Non-Consumable,mozart_una_donna_a_quindici_anni,mozart_una_donna_a_quindici_anni,YES,10,Mozart: Una donna a quindici anni,Mozart: Una donna a quindici anni,/Users/yushenhan/Dropbox/MMExecutives/IAPs/IAP_screenshot_2560×1600.png,Now,None,a single downloadable movement of a piece for in-app purchase,NA
metamusic02,Non-Consumable,mozart_vedrai_carino,mozart_vedrai_carino,YES,10,"Mozart: Vedrai, carino","Mozart: Vedrai, carino",/Users/yushenhan/Dropbox/MMExecutives/IAPs/IAP_screenshot_2560×1600.png,Now,None,a single downloadable movement of a piece for in-app purchase,NA
metamusic02,Non-Consumable,mozart_voi_che_sapete,mozart_voi_che_sapete,YES,10,Mozart: Voi che sapete,Mozart: Voi che sapete,/Users/yushenhan/Dropbox/MMExecutives/IAPs/IAP_screenshot_2560×1600.png,Now,None,a single downloadable movement of a piece for in-app purchase,NA
metamusic02,Non-Consumable,puccini_addio_fiorito_asil,puccini_addio_fiorito_asil,YES,10,Puccini: Addio Fiorito asil,Puccini: Addio Fiorito asil,/Users/yushenhan/Dropbox/MMExecutives/IAPs/IAP_screenshot_2560×1600.png,Now,None,a single downloadable movement of a piece for in-app purchase,NA
metamusic02,Non-Consumable,puccini_che_gelida_manina,puccini_che_gelida_manina,YES,10,Puccini: Che Gelinda Manina,Puccini: Che Gelinda Manina,/Users/yushenhan/Dropbox/MMExecutives/IAPs/IAP_screenshot_2560×1600.png,Now,None,a single downloadable movement of a piece for in-app purchase,NA
metamusic02,Non-Consumable,puccini_donde_lieta,puccini_donde_lieta,YES,10,Puccini: Donde lieta,Puccini: Donde lieta,/Users/yushenhan/Dropbox/MMExecutives/IAPs/IAP_screenshot_2560×1600.png,Now,None,a single downloadable movement of a piece for in-app purchase,NA
metamusic02,Non-Consumable,puccini_e_lucevan_le_stelle,puccini_e_lucevan_le_stelle,YES,10,Puccini: E lucevan le stelle,Puccini: E lucevan le stelle,/Users/yushenhan/Dropbox/MMExecutives/IAPs/IAP_screenshot_2560×1600.png,Now,None,a single downloadable movement of a piece for in-app purchase,NA
metamusic02,Non-Consumable,puccini_nessun_dorma,puccini_nessun_dorma,YES,10,Puccini: Nessun Dorma,Puccini: Nessun Dorma,/Users/yushenhan/Dropbox/MMExecutives/IAPs/IAP_screenshot_2560×1600.png,Now,None,a single downloadable movement of a piece for in-app purchase,NA
metamusic02,Non-Consumable,puccini_non_la_sospiri,puccini_non_la_sospiri,YES,10,Puccini: Non la sospiri,Puccini: Non la sospiri,/Users/yushenhan/Dropbox/MMExecutives/IAPs/IAP_screenshot_2560×1600.png,Now,None,a single downloadable movement of a piece for in-app purchase,NA
metamusic02,Non-Consumable,puccini_non_piangere_liu,puccini_non_piangere_liu,YES,10,"Puccini: Non piangere, Liu","Puccini: Non piangere, Liu",/Users/yushenhan/Dropbox/MMExecutives/IAPs/IAP_screenshot_2560×1600.png,Now,None,a single downloadable movement of a piece for in-app purchase,NA
metamusic02,Non-Consumable,puccini_o_mio_babbino_caro,puccini_o_mio_babbino_caro,YES,10,Puccini: O mio babbino caro,Puccini: O mio babbino caro,/Users/yushenhan/Dropbox/MMExecutives/IAPs/IAP_screenshot_2560×1600.png,Now,None,a single downloadable movement of a piece for in-app purchase,NA
metamusic02,Non-Consumable,puccini_recondita_armonia,puccini_recondita_armonia,YES,10,Puccini: Recondita Armonia,Puccini: Recondita Armonia,/Users/yushenhan/Dropbox/MMExecutives/IAPs/IAP_screenshot_2560×1600.png,Now,None,a single downloadable movement of a piece for in-app purchase,NA
metamusic02,Non-Consumable,puccini_senza_mamma,puccini_senza_mamma,YES,10,"Puccini: Senza mamma, bimbo","Puccini: Senza mamma, bimbo",/Users/yushenhan/Dropbox/MMExecutives/IAPs/IAP_screenshot_2560×1600.png,Now,None,a single downloadable movement of a piece for in-app purchase,NA
metamusic02,Non-Consumable,puccini_signore_ascolta,puccini_signore_ascolta,YES,10,Puccini: Signore Ascolta,Puccini: Signore Ascolta,/Users/yushenhan/Dropbox/MMExecutives/IAPs/IAP_screenshot_2560×1600.png,Now,None,a single downloadable movement of a piece for in-app purchase,NA
metamusic02,Non-Consumable,puccini_tu_che_di_gel_sei_cinta,puccini_tu_che_di_gel_sei_cinta,YES,10,Puccini: Tu che di gel sei cinta,Puccini: Tu che di gel sei cinta,/Users/yushenhan/Dropbox/MMExecutives/IAPs/IAP_screenshot_2560×1600.png,Now,None,a single downloadable movement of a piece for in-app purchase,NA
metamusic02,Non-Consumable,puccini_un_bel_di,puccini_un_bel_di,YES,10,Puccini: Un bel di,Puccini: Un bel di,/Users/yushenhan/Dropbox/MMExecutives/IAPs/IAP_screenshot_2560×1600.png,Now,None,a single downloadable movement of a piece for in-app purchase,NA
metamusic02,Non-Consumable,puccini_vissi_darte,puccini_vissi_darte,YES,10,Puccini: Vissi d'arte,Puccini: Vissi d'arte,/Users/yushenhan/Dropbox/MMExecutives/IAPs/IAP_screenshot_2560×1600.png,Now,None,a single downloadable movement of a piece for in-app purchase,NA
metamusic02,Non-Consumable,saint_saens_danse_macabre_violin,saint_saens_danse_macabre_violin,YES,10,"Danse Macabre, Op. 40, Poëme Symphonique, Violin and Orchestra","Danse Macabre, Op. 40, Poëme Symphonique, Violin and Orchestra",/Users/yushenhan/Dropbox/MMExecutives/IAPs/IAP_screenshot_2560×1600.png,Now,None,a single downloadable movement of a piece for in-app purchase,NA
metamusic02,Non-Consumable,reinecke_flute_ballade,reinecke_flute_ballade,YES,10,"Ballade for Flute and Orchestra, Op. 288","Ballade for Flute and Orchestra, Op. 288",/Users/yushenhan/Dropbox/MMExecutives/IAPs/IAP_screenshot_2560×1600.png,Now,None,a single downloadable movement of a piece for in-app purchase,NA
metamusic02,Non-Consumable,schubert_rondo_in_a,schubert_rondo_in_a,YES,10,"Rondo in A major, D.438","Rondo in A major, D.438",/Users/yushenhan/Dropbox/MMExecutives/IAPs/IAP_screenshot_2560×1600.png,Now,None,a single downloadable movement of a piece for in-app purchase,NA
metamusic02,Non-Consumable,viotti_violin_concerto_22_orch_mvmt1,viotti_violin_concerto_22_orch_mvmt1,YES,10,"Violin Concerto No.22 in A Minor, Mvmt 1","Violin Concerto No.22 in A Minor, Mvmt 1",/Users/yushenhan/Dropbox/MMExecutives/IAPs/IAP_screenshot_2560×1600.png,Now,None,a single downloadable movement of a piece for in-app purchase,NA
metamusic02,Non-Consumable,viotti_violin_concerto_22_orch_mvmt2,viotti_violin_concerto_22_orch_mvmt2,YES,10,"Violin Concerto No.22 in A Minor, Mvmt 2","Violin Concerto No.22 in A Minor, Mvmt 2",/Users/yushenhan/Dropbox/MMExecutives/IAPs/IAP_screenshot_2560×1600.png,Now,None,a single downloadable movement of a piece for in-app purchase,NA
metamusic02,Non-Consumable,viotti_violin_concerto_22_orch_mvmt3,viotti_violin_concerto_22_orch_mvmt3,YES,10,"Violin Concerto No.22 in A Minor, Mvmt 3","Violin Concerto No.22 in A Minor, Mvmt 3",/Users/yushenhan/Dropbox/MMExecutives/IAPs/IAP_screenshot_2560×1600.png,Now,None,a single downloadable movement of a piece for in-app purchase,NA
metamusic02,Non-Consumable,vivaldi_violin_concerto_amin_mvmt1,vivaldi_violin_concerto_amin_mvmt1,YES,10,"Violin Concerto in A minor, RV 356, Mvmt 1","Violin Concerto in A minor, RV 356, Mvmt 1",/Users/yushenhan/Dropbox/MMExecutives/IAPs/IAP_screenshot_2560×1600.png,Now,None,a single downloadable movement of a piece for in-app purchase,NA
metamusic02,Non-Consumable,vivaldi_violin_concerto_amin_mvmt2,vivaldi_violin_concerto_amin_mvmt2,YES,10,"Violin Concerto in A minor, RV 356, Mvmt 2","Violin Concerto in A minor, RV 356, Mvmt 2",/Users/yushenhan/Dropbox/MMExecutives/IAPs/IAP_screenshot_2560×1600.png,Now,None,a single downloadable movement of a piece for in-app purchase,NA
metamusic02,Non-Consumable,vivaldi_violin_concerto_amin_mvmt3,vivaldi_violin_concerto_amin_mvmt3,YES,10,"Violin Concerto in A minor, RV 356, Mvmt 3","Violin Concerto in A minor, RV 356, Mvmt 3",/Users/yushenhan/Dropbox/MMExecutives/IAPs/IAP_screenshot_2560×1600.png,Now,None,a single downloadable movement of a piece for in-app purchase,NA
metamusic02,Non-Consumable,faure_cello_elegie,faure_cello_elegie,YES,10,"Élégie, Op.24 for Cello and Piano","Élégie, Op.24 for Cello and Piano",/Users/yushenhan/Dropbox/MMExecutives/IAPs/IAP_screenshot_2560×1600.png,Now,None,a single downloadable movement of a piece for in-app purchase,NA
metamusic02,Non-Consumable,debussy_premiere_rhapsodie,debussy_premiere_rhapsodie,YES,10,Première Rhapsodie for Bb Clarinet and Piano,Première Rhapsodie for Bb Clarinet and Piano,/Users/yushenhan/Dropbox/MMExecutives/IAPs/IAP_screenshot_2560×1600.png,Now,None,a single downloadable movement of a piece for in-app purchase,NA
metamusic02,Non-Consumable,weber_clarinet_grand_duo_mvmt1,weber_clarinet_grand_duo_mvmt1,YES,10,"Grand Duo Concertant, Op.48, Mvmt 1","Grand Duo Concertant, Op.48, Mvmt 1",/Users/yushenhan/Dropbox/MMExecutives/IAPs/IAP_screenshot_2560×1600.png,Now,None,a single downloadable movement of a piece for in-app purchase,NA
metamusic02,Non-Consumable,weber_clarinet_grand_duo_mvmt2,weber_clarinet_grand_duo_mvmt2,YES,10,"Grand Duo Concertant, Op.48, Mvmt 2","Grand Duo Concertant, Op.48, Mvmt 2",/Users/yushenhan/Dropbox/MMExecutives/IAPs/IAP_screenshot_2560×1600.png,Now,None,a single downloadable movement of a piece for in-app purchase,NA
metamusic02,Non-Consumable,weber_clarinet_grand_duo_mvmt3,weber_clarinet_grand_duo_mvmt3,YES,10,"Grand Duo Concertant, Op.48, Mvmt 3","Grand Duo Concertant, Op.48, Mvmt 3",/Users/yushenhan/Dropbox/MMExecutives/IAPs/IAP_screenshot_2560×1600.png,Now,None,a single downloadable movement of a piece for in-app purchase,NA
metamusic02,Non-Consumable,chaminade_flute_concertino,chaminade_flute_concertino,YES,10,"Flute Concertino in D major, Op. 107","Flute Concertino in D major, Op. 107",/Users/yushenhan/Dropbox/MMExecutives/IAPs/IAP_screenshot_2560×1600.png,Now,None,a single downloadable movement of a piece for in-app purchase,NA
metamusic02,Non-Consumable,poulenc_flute_sonata_mvmt1,poulenc_flute_sonata_mvmt1,YES,10,"Flute Sonata, FP 164, Mvmt 1","Flute Sonata, FP 164, Mvmt 1",/Users/yushenhan/Dropbox/MMExecutives/IAPs/IAP_screenshot_2560×1600.png,Now,None,a single downloadable movement of a piece for in-app purchase,NA
metamusic02,Non-Consumable,poulenc_flute_sonata_mvmt2,poulenc_flute_sonata_mvmt2,YES,10,"Flute Sonata, FP 164, Mvmt 2","Flute Sonata, FP 164, Mvmt 2",/Users/yushenhan/Dropbox/MMExecutives/IAPs/IAP_screenshot_2560×1600.png,Now,None,a single downloadable movement of a piece for in-app purchase,NA
metamusic02,Non-Consumable,poulenc_flute_sonata_mvmt3,poulenc_flute_sonata_mvmt3,YES,10,"Flute Sonata, FP 164, Mvmt 3","Flute Sonata, FP 164, Mvmt 3",/Users/yushenhan/Dropbox/MMExecutives/IAPs/IAP_screenshot_2560×1600.png,Now,None,a single downloadable movement of a piece for in-app purchase,NA
metamusic02,Non-Consumable,saint_saens_swan_cello,saint_saens_swan_cello,YES,10,The Swan (Le cygne) for Cello and Piano,The Swan (Le cygne) for Cello and Piano,/Users/yushenhan/Dropbox/MMExecutives/IAPs/IAP_screenshot_2560×1600.png,Now,None,a single downloadable movement of a piece for in-app purchase,NA
metamusic02,Non-Consumable,saint_saens_swan_flute,saint_saens_swan_flute,YES,10,The Swan (Le cygne) for Flute and Piano,The Swan (Le cygne) for Flute and Piano,/Users/yushenhan/Dropbox/MMExecutives/IAPs/IAP_screenshot_2560×1600.png,Now,None,a single downloadable movement of a piece for in-app purchase,NA
metamusic02,Non-Consumable,saint_saens_swan_violin,saint_saens_swan_violin,YES,10,The Swan (Le cygne) for Violin and Piano,The Swan (Le cygne) for Violin and Piano,/Users/yushenhan/Dropbox/MMExecutives/IAPs/IAP_screenshot_2560×1600.png,Now,None,a single downloadable movement of a piece for in-app purchase,NA
metamusic02,Non-Consumable,david_trombone_concertino_mvmt1,david_trombone_concertino_mvmt1,YES,10,"Trombone Concertino, Op.4, Mvmt 1","Trombone Concertino, Op.4, Mvmt 1",/Users/yushenhan/Dropbox/MMExecutives/IAPs/IAP_screenshot_2560×1600.png,Now,None,a single downloadable movement of a piece for in-app purchase,NA
metamusic02,Non-Consumable,rimsky_korsakov_trombone_concerto,rimsky_korsakov_trombone_concerto,YES,10,Trombone Concerto,Trombone Concerto,/Users/yushenhan/Dropbox/MMExecutives/IAPs/IAP_screenshot_2560×1600.png,Now,None,a single downloadable movement of a piece for in-app purchase,NA
metamusic02,Non-Consumable,bruch_viola_romanze,bruch_viola_romanze,YES,10,"Romanze for Viola and Piano, Op.85","Romanze for Viola and Piano, Op.85",/Users/yushenhan/Dropbox/MMExecutives/IAPs/IAP_screenshot_2560×1600.png,Now,None,a single downloadable movement of a piece for in-app purchase,NA
metamusic02,Non-Consumable,schubert_arpeggione_sonata_mvmt1,schubert_arpeggione_sonata_mvmt1,YES,10,"Viola Arpeggione Sonata, Mvmt 1","Viola Arpeggione Sonata, Mvmt 1",/Users/yushenhan/Dropbox/MMExecutives/IAPs/IAP_screenshot_2560×1600.png,Now,None,a single downloadable movement of a piece for in-app purchase,NA
metamusic02,Non-Consumable,accolay_violin_concerto,accolay_violin_concerto,YES,10,Violin Concerto No.1 in A minor,Violin Concerto No.1 in A minor,/Users/yushenhan/Dropbox/MMExecutives/IAPs/IAP_screenshot_2560×1600.png,Now,None,a single downloadable movement of a piece for in-app purchase,NA
metamusic02,Non-Consumable,debussy_la_fille_aux_cheveux_lin,debussy_la_fille_aux_cheveux_lin,YES,10,La fille aux cheveux de lin (The Girl with the Flaxen Hair),La fille aux cheveux de lin (The Girl with the Flaxen Hair),/Users/yushenhan/Dropbox/MMExecutives/IAPs/IAP_screenshot_2560×1600.png,Now,None,a single downloadable movement of a piece for in-app purchase,NA
metamusic02,Non-Consumable,komarovsky_violin_concerto_2_mvmt1,komarovsky_violin_concerto_2_mvmt1,YES,10,"Violin Concerto No.2, Mvmt 1","Violin Concerto No.2, Mvmt 1",/Users/yushenhan/Dropbox/MMExecutives/IAPs/IAP_screenshot_2560×1600.png,Now,None,a single downloadable movement of a piece for in-app purchase,NA
metamusic02,Non-Consumable,messiaen_theme_variations,messiaen_theme_variations,YES,10,Thème et Variations,Thème et Variations,/Users/yushenhan/Dropbox/MMExecutives/IAPs/IAP_screenshot_2560×1600.png,Now,None,a single downloadable movement of a piece for in-app purchase,NA
metamusic02,Non-Consumable,saint_saens_havanaise_op83,saint_saens_havanaise_op83,YES,10,"Havanaise in E major, op. 83,","Havanaise in E major, op. 83,",/Users/yushenhan/Dropbox/MMExecutives/IAPs/IAP_screenshot_2560×1600.png,Now,None,a single downloadable movement of a piece for in-app purchase,NA
metamusic02,Non-Consumable,saint_saens_violin_concerto_3_mvmt3,saint_saens_violin_concerto_3_mvmt3,YES,10,"Violin Concerto No. 3, Mvmt 3","Violin Concerto No. 3, Mvmt 3",/Users/yushenhan/Dropbox/MMExecutives/IAPs/IAP_screenshot_2560×1600.png,Now,None,a single downloadable movement of a piece for in-app purchase,NA
metamusic02,Non-Consumable,sarasate_intro_and_tarantella,sarasate_intro_and_tarantella,YES,10,"Introduction & Tarantella, Op. 43","Introduction & Tarantella, Op. 43",/Users/yushenhan/Dropbox/MMExecutives/IAPs/IAP_screenshot_2560×1600.png,Now,None,a single downloadable movement of a piece for in-app purchase,NA
metamusic02,Non-Consumable,tchaikovsky_serenade_melancolique,tchaikovsky_serenade_melancolique,YES,10,"Sérénade mélancolique, op.26","Sérénade mélancolique, op.26",/Users/yushenhan/Dropbox/MMExecutives/IAPs/IAP_screenshot_2560×1600.png,Now,None,a single downloadable movement of a piece for in-app purchase,NA
metamusic02,Non-Consumable,tchaikovsky_souvenir_melodie,tchaikovsky_souvenir_melodie,YES,10,"Souvenir d'un lieu cher (Melodié), op. 42","Souvenir d'un lieu cher (Melodié), op. 42",/Users/yushenhan/Dropbox/MMExecutives/IAPs/IAP_screenshot_2560×1600.png,Now,None,a single downloadable movement of a piece for in-app purchase,NA
metamusic02,Non-Consumable,viotti_violin_concerto_22_piano_mvmt1,viotti_violin_concerto_22_piano_mvmt1,YES,10,"Violin Concerto No.22 in A Minor, Mvmt 1 (for Violin and Piano)","Violin Concerto No.22 in A Minor, Mvmt 1 (for Violin and Piano)",/Users/yushenhan/Dropbox/MMExecutives/IAPs/IAP_screenshot_2560×1600.png,Now,None,a single downloadable movement of a piece for in-app purchase,NA
metamusic02,Non-Consumable,viotti_violin_concerto_22_piano_mvmt2,viotti_violin_concerto_22_piano_mvmt2,YES,10,"Violin Concerto No.22 in A Minor, Mvmt 2 (for Violin and Piano)","Violin Concerto No.22 in A Minor, Mvmt 2 (for Violin and Piano)",/Users/yushenhan/Dropbox/MMExecutives/IAPs/IAP_screenshot_2560×1600.png,Now,None,a single downloadable movement of a piece for in-app purchase,NA
metamusic02,Non-Consumable,wieniawski_scherzo_tarantelle,wieniawski_scherzo_tarantelle,YES,10,Scherzo Tarantelle,Scherzo Tarantelle,/Users/yushenhan/Dropbox/MMExecutives/IAPs/IAP_screenshot_2560×1600.png,Now,None,a single downloadable movement of a piece for in-app purchase,NA
metamusic02,Non-Consumable,kabalevsky_cello_concerto_1,kabalevsky_cello_concerto_1,YES,10,Cello Concerto #1,Cello Concerto #1,/Users/yushenhan/Dropbox/MMExecutives/IAPs/IAP_screenshot_2560×1600.png,Now,None,a single downloadable movement of a piece for in-app purchase,NA
metamusic02,Non-Consumable,prokofiev_cello_sinfonia_concertante_mvmt1,prokofiev_cello_sinfonia_concertante_mvmt1,YES,10,"Cello Sinfonia Concertante, Mvmt 1","Cello Sinfonia Concertante, Mvmt 1",/Users/yushenhan/Dropbox/MMExecutives/IAPs/IAP_screenshot_2560×1600.png,Now,None,a single downloadable movement of a piece for in-app purchase,NA
metamusic02,Non-Consumable,sibbing_oboe_ballad,sibbing_oboe_ballad,YES,10,"Ballad, Blues, and Rag for Oboe and Piano, Part 1","Ballad, Blues, and Rag for Oboe and Piano, Part 1",/Users/yushenhan/Dropbox/MMExecutives/IAPs/IAP_screenshot_2560×1600.png,Now,None,a single downloadable movement of a piece for in-app purchase,NA
metamusic02,Non-Consumable,sibbing_oboe_blues,sibbing_oboe_blues,YES,10,"Ballad, Blues, and Rag for Oboe and Piano, Part 2","Ballad, Blues, and Rag for Oboe and Piano, Part 2",/Users/yushenhan/Dropbox/MMExecutives/IAPs/IAP_screenshot_2560×1600.png,Now,None,a single downloadable movement of a piece for in-app purchase,NA
metamusic02,Non-Consumable,sibbing_oboe_rag,sibbing_oboe_rag,YES,10,"Ballad, Blues, and Rag for Oboe and Piano, Part 3","Ballad, Blues, and Rag for Oboe and Piano, Part 3",/Users/yushenhan/Dropbox/MMExecutives/IAPs/IAP_screenshot_2560×1600.png,Now,None,a single downloadable movement of a piece for in-app purchase,NA
metamusic02,Non-Consumable,demersseman_saxophone_carnaval_de_venise,demersseman_saxophone_carnaval_de_venise,YES,10,Le Carnaval de Venise for Alto Saxophone and Piano,Le Carnaval de Venise for Alto Saxophone and Piano,/Users/yushenhan/Dropbox/MMExecutives/IAPs/IAP_screenshot_2560×1600.png,Now,None,a single downloadable movement of a piece for in-app purchase,NA
metamusic02,Non-Consumable,creston_saxophone_sonata_mvmt1,creston_saxophone_sonata_mvmt1,YES,10,"Sonata for Alto Saxophone and Piano, Mvmt 1","Sonata for Alto Saxophone and Piano, Mvmt 1",/Users/yushenhan/Dropbox/MMExecutives/IAPs/IAP_screenshot_2560×1600.png,Now,None,a single downloadable movement of a piece for in-app purchase,NA
metamusic02,Non-Consumable,creston_saxophone_sonata_mvmt2,creston_saxophone_sonata_mvmt2,YES,10,"Sonata for Alto Saxophone and Piano, Mvmt 2","Sonata for Alto Saxophone and Piano, Mvmt 2",/Users/yushenhan/Dropbox/MMExecutives/IAPs/IAP_screenshot_2560×1600.png,Now,None,a single downloadable movement of a piece for in-app purchase,NA
metamusic02,Non-Consumable,creston_saxophone_sonata_mvmt3,creston_saxophone_sonata_mvmt3,YES,10,"Sonata for Alto Saxophone and Piano, Mvmt 3","Sonata for Alto Saxophone and Piano, Mvmt 3",/Users/yushenhan/Dropbox/MMExecutives/IAPs/IAP_screenshot_2560×1600.png,Now,None,a single downloadable movement of a piece for in-app purchase,NA
metamusic02,Non-Consumable,david_trombone_concertino_mvmt1,david_trombone_concertino_mvmt1,YES,10,"Trombone Concertino, Op.4, Mvmt 1","Trombone Concertino, Op.4, Mvmt 1",/Users/yushenhan/Dropbox/MMExecutives/IAPs/IAP_screenshot_2560×1600.png,Now,None,a single downloadable movement of a piece for in-app purchase,NA
metamusic02,Non-Consumable,bruch_violin_scottish_fantasy_mvmt1,bruch_violin_scottish_fantasy_mvmt1,YES,10,"Scottish Fantasy in E-flat Major Op. 46, Mvmt 1","Scottish Fantasy in E-flat Major Op. 46, Mvmt 1",/Users/yushenhan/Dropbox/MMExecutives/IAPs/IAP_screenshot_2560×1600.png,Now,None,a single downloadable movement of a piece for in-app purchase,NA
metamusic02,Non-Consumable,tchaikovsky_souvenir_scherzo,tchaikovsky_souvenir_scherzo,YES,10,"Souvenir d'un lieu cher (Scherzo), op. 42","Souvenir d'un lieu cher (Scherzo), op. 42",/Users/yushenhan/Dropbox/MMExecutives/IAPs/IAP_screenshot_2560×1600.png,Now,None,a single downloadable movement of a piece for in-app purchase,NA
metamusic02,Non-Consumable,glazunov_viola_elegie,glazunov_viola_elegie,YES,10,"Elegie, Op.44","Elegie, Op.44",/Users/yushenhan/Dropbox/MMExecutives/IAPs/IAP_screenshot_2560×1600.png,Now,None,a single downloadable movement of a piece for in-app purchase,NA
metamusic02,Non-Consumable,villa_lobos_saxophone_fantasia_mvmt1,villa_lobos_saxophone_fantasia_mvmt1,YES,10,"Fantasia Para Saxophone, Mvmt 1","Fantasia Para Saxophone, Mvmt 1",/Users/yushenhan/Dropbox/MMExecutives/IAPs/IAP_screenshot_2560×1600.png,Now,None,a single downloadable movement of a piece for in-app purchase,NA
metamusic02,Non-Consumable,villa_lobos_saxophone_fantasia_mvmts2_3,villa_lobos_saxophone_fantasia_mvmts2_3,YES,10,"Fantasia Para Saxophone, Mvmt 2","Fantasia Para Saxophone, Mvmt 2",/Users/yushenhan/Dropbox/MMExecutives/IAPs/IAP_screenshot_2560×1600.png,Now,None,a single downloadable movement of a piece for in-app purchase,NA
metamusic02,Non-Consumable,maurice_saxophone_tableaux_de_provence_mvmt1,maurice_saxophone_tableaux_de_provence_mvmt1,YES,10,"Tableaux de Provence, 1. Farandoulo di chatouno","Tableaux de Provence, 1. Farandoulo di chatouno",/Users/yushenhan/Dropbox/MMExecutives/IAPs/IAP_screenshot_2560×1600.png,Now,None,a single downloadable movement of a piece for in-app purchase,NA
metamusic02,Non-Consumable,maurice_saxophone_tableaux_de_provence_mvmt2,maurice_saxophone_tableaux_de_provence_mvmt2,YES,10,"Tableaux de Provence, 2. Cansoun per ma mio","Tableaux de Provence, 2. Cansoun per ma mio",/Users/yushenhan/Dropbox/MMExecutives/IAPs/IAP_screenshot_2560×1600.png,Now,None,a single downloadable movement of a piece for in-app purchase,NA
metamusic02,Non-Consumable,maurice_saxophone_tableaux_de_provence_mvmt3,maurice_saxophone_tableaux_de_provence_mvmt3,YES,10,"Tableaux de Provence, 3. La boumiano","Tableaux de Provence, 3. La boumiano",/Users/yushenhan/Dropbox/MMExecutives/IAPs/IAP_screenshot_2560×1600.png,Now,None,a single downloadable movement of a piece for in-app purchase,NA
metamusic02,Non-Consumable,maurice_saxophone_tableaux_de_provence_mvmt4,maurice_saxophone_tableaux_de_provence_mvmt4,YES,10,"Tableaux de Provence, 4. Dis alyscamps l'amo souspire","Tableaux de Provence, 4. Dis alyscamps l'amo souspire",/Users/yushenhan/Dropbox/MMExecutives/IAPs/IAP_screenshot_2560×1600.png,Now,None,a single downloadable movement of a piece for in-app purchase,NA